module bank

go 1.21

require (
	github.com/gojuno/minimock v1.9.2
	github.com/gojuno/minimock/v3 v3.3.6
	github.com/google/uuid v1.6.0
	github.com/gorilla/mux v1.8.1
	github.com/ilyakaznacheev/cleanenv v1.5.0
	github.com/mattn/go-sqlite3 v1.14.22
	github.com/stretchr/testify v1.8.4
)

require (
	github.com/BurntSushi/toml v1.3.2 // indirect
	github.com/davecgh/go-spew v1.1.1 // indirect
	github.com/joho/godotenv v1.5.1 // indirect
	github.com/kr/pretty v0.3.1 // indirect
	github.com/pmezard/go-difflib v1.0.0 // indirect
	gopkg.in/yaml.v3 v3.0.1 // indirect
	olympos.io/encoding/edn v0.0.0-20201019073823-d3554ca0b0a3 // indirect
)
